%YAML 1.1
%TAG !u! tag:unity3d.com,2011:
--- !u!114 &11400000
MonoBehaviour:
  m_ObjectHideFlags: 0
  m_CorrespondingSourceObject: {fileID: 0}
  m_PrefabInstance: {fileID: 0}
  m_PrefabAsset: {fileID: 0}
  m_GameObject: {fileID: 0}
  m_Enabled: 1
  m_EditorHideFlags: 0
  m_Script: {fileID: 11500000, guid: 731921a0e031f2f468be1ef58a0f8037, type: 3}
  m_Name: Baking Tray
  m_EditorClassIdentifier: 
  cardName: Baking Tray
  description: 
  type: 0
  cost: 1
  num: 2
  sprite: {fileID: 21300000, guid: 54e872754aab3e441bbd694f824a4888, type: 3}
  effectEnum: -1
  effectType: 0
