%YAML 1.1
%TAG !u! tag:unity3d.com,2011:
--- !u!114 &11400000
MonoBehaviour:
  m_ObjectHideFlags: 0
  m_CorrespondingSourceObject: {fileID: 0}
  m_PrefabInstance: {fileID: 0}
  m_PrefabAsset: {fileID: 0}
  m_GameObject: {fileID: 0}
  m_Enabled: 1
  m_EditorHideFlags: 0
  m_Script: {fileID: 11500000, guid: 6402b7c168a76f946bdf955a44747fda, type: 3}
  m_Name: Boomerang
  m_EditorClassIdentifier: 
  cardName: Boomerang
  description: Deal half the damage now and half at the end of the round
  type: 2
  cost: 2
  num: 10
  sprite: {fileID: 21300000, guid: 54e872754aab3e441bbd694f824a4888, type: 3}
  effectEnum: 11
  effectType: 3
