%YAML 1.1
%TAG !u! tag:unity3d.com,2011:
--- !u!1 &6392529255758034077
GameObject:
  m_ObjectHideFlags: 0
  m_CorrespondingSourceObject: {fileID: 0}
  m_PrefabInstance: {fileID: 0}
  m_PrefabAsset: {fileID: 0}
  serializedVersion: 6
  m_Component:
  - component: {fileID: 8828423505680573492}
  - component: {fileID: 2922759930653620283}
  - component: {fileID: 8591878293558873711}
  m_Layer: 0
  m_Name: FlashSale
  m_TagString: Untagged
  m_Icon: {fileID: 0}
  m_NavMeshLayer: 0
  m_StaticEditorFlags: 0
  m_IsActive: 1
--- !u!4 &8828423505680573492
Transform:
  m_ObjectHideFlags: 0
  m_CorrespondingSourceObject: {fileID: 0}
  m_PrefabInstance: {fileID: 0}
  m_PrefabAsset: {fileID: 0}
  m_GameObject: {fileID: 6392529255758034077}
  m_LocalRotation: {x: 0, y: 0, z: 0, w: 1}
  m_LocalPosition: {x: 0, y: 0, z: 0}
  m_LocalScale: {x: 1, y: 1, z: 1}
  m_Children: []
  m_Father: {fileID: 0}
  m_RootOrder: 0
  m_LocalEulerAnglesHint: {x: 0, y: 0, z: 0}
--- !u!114 &2922759930653620283
MonoBehaviour:
  m_ObjectHideFlags: 0
  m_CorrespondingSourceObject: {fileID: 0}
  m_PrefabInstance: {fileID: 0}
  m_PrefabAsset: {fileID: 0}
  m_GameObject: {fileID: 6392529255758034077}
  m_Enabled: 1
  m_EditorHideFlags: 0
  m_Script: {fileID: 11500000, guid: d6e81bbc4034a0744aa191cf8e5df907, type: 3}
  m_Name: 
  m_EditorClassIdentifier: 
  characterName: Flash Sale
  abilityDescription: Make every card in the middle have a cost of zero
  sprites: []
  voiceClips:
  - lines:
    - {fileID: 8300000, guid: 1960646b9245479418d46dc69fe5e652, type: 3}
    - {fileID: 8300000, guid: 33be75e0711fa044db646e64eed27182, type: 3}
    - {fileID: 8300000, guid: 63b53c6bd8abae146aa203b96053c1be, type: 3}
  - lines:
    - {fileID: 8300000, guid: 451ccaab162bb384fb0bdcc4f850e9d6, type: 3}
    - {fileID: 8300000, guid: 28a6ebe2cd6ec3d4d8be52544108b356, type: 3}
    - {fileID: 8300000, guid: 015766fb61f002646b046a4c6dbba4eb, type: 3}
  - lines:
    - {fileID: 8300000, guid: 262c16dadbc1e234daf629e76c0dae31, type: 3}
    - {fileID: 8300000, guid: 9a856bd0116e91c48bf997eb8424ce79, type: 3}
    - {fileID: 8300000, guid: f6e8a7a27ac0c15418df18df586bd3a0, type: 3}
    - {fileID: 8300000, guid: df2f9d0cb3963fe48b83d3f444e6ef90, type: 3}
  - lines:
    - {fileID: 8300000, guid: 19780a32fc8742e47a519f8db112982d, type: 3}
    - {fileID: 8300000, guid: 1a1e2412028bd9e43b320c0b028dd1fe, type: 3}
    - {fileID: 8300000, guid: 2e380964be398264a836e4dd5b7a3da2, type: 3}
    - {fileID: 8300000, guid: 79d54fc34bcb031459f1ad1c03f6cc8b, type: 3}
    - {fileID: 8300000, guid: 937c23bd69818e74d82e0722dc1279da, type: 3}
  - lines:
    - {fileID: 8300000, guid: 1efd7efdd92851b4293a8897bfa77b94, type: 3}
    - {fileID: 8300000, guid: 5562d0c1d1c742b499c5c489400de314, type: 3}
    - {fileID: 8300000, guid: 14d431e8d993fce4eb77e9ccca6d06c9, type: 3}
    - {fileID: 8300000, guid: 35373d54318cc3243bf820053b10908c, type: 3}
  - lines:
    - {fileID: 8300000, guid: 9b7d4c32f9fffa342970db4f1a0beb38, type: 3}
    - {fileID: 8300000, guid: 508bd541925ea39488dda409966884e4, type: 3}
    - {fileID: 8300000, guid: 3a6c065bb4dc19b4e93759fce68eaa48, type: 3}
    - {fileID: 8300000, guid: 2f287711b3f344646af7402d368b56b1, type: 3}
  - lines:
    - {fileID: 8300000, guid: 7b116f290d0190e47b396851a2aaf3cc, type: 3}
    - {fileID: 8300000, guid: 1ccadd245ac90a64480b8addf5d4efcc, type: 3}
    - {fileID: 8300000, guid: 42afbe5f2a5ab4d4e99bfc6e1b3c066e, type: 3}
  - lines:
    - {fileID: 8300000, guid: 0ac741f30f919f84393b19400281fa06, type: 3}
    - {fileID: 8300000, guid: cb4a8d8526cf0d1429d7a69060a07fd9, type: 3}
    - {fileID: 8300000, guid: f9c3e0cf66c70514195c7e84f9523b4a, type: 3}
  - lines:
    - {fileID: 8300000, guid: 016121ad409aaed40ba8aa8c53bc382f, type: 3}
    - {fileID: 8300000, guid: fa306387471421b409ca4a35b76b057b, type: 3}
    - {fileID: 8300000, guid: 40e780d364b4b8c4880663fdab8f15e9, type: 3}
    - {fileID: 8300000, guid: b8024a039a636724aa763eb0fff4d1e8, type: 3}
  - lines:
    - {fileID: 8300000, guid: 777d685f263087645af3b92935f0405f, type: 3}
    - {fileID: 8300000, guid: c24182228ab17dc428ee8b099b351808, type: 3}
    - {fileID: 8300000, guid: 1f5e5890a50a7d0489d0f3b04e428a05, type: 3}
    - {fileID: 8300000, guid: 46ebb381c32180241b706f4f3f371669, type: 3}
  - lines:
    - {fileID: 8300000, guid: 96e12fb69fc914c44b1359841a2cc9a7, type: 3}
    - {fileID: 8300000, guid: 0a3745a46b74ac34c8453813aaae059f, type: 3}
    - {fileID: 8300000, guid: d409faa2ca9006e45bd0e8229b677820, type: 3}
    - {fileID: 8300000, guid: 8d03ab94db39b0c4daef11e8a83f870d, type: 3}
  - lines:
    - {fileID: 8300000, guid: 8a3c69c6c7b9b4642ae275b7856d871b, type: 3}
    - {fileID: 8300000, guid: 8b42320793e5e8b40904d17209b8fa0b, type: 3}
  - lines:
    - {fileID: 8300000, guid: 3d83e6053a10d7840afe26aa4b3e5d57, type: 3}
    - {fileID: 8300000, guid: 99dad175252ea0e41973c8f5027de149, type: 3}
    - {fileID: 8300000, guid: 52c63da8006d37b4ea8a5890251b8c30, type: 3}
--- !u!82 &8591878293558873711
AudioSource:
  m_ObjectHideFlags: 0
  m_CorrespondingSourceObject: {fileID: 0}
  m_PrefabInstance: {fileID: 0}
  m_PrefabAsset: {fileID: 0}
  m_GameObject: {fileID: 6392529255758034077}
  m_Enabled: 1
  serializedVersion: 4
  OutputAudioMixerGroup: {fileID: 0}
  m_audioClip: {fileID: 0}
  m_PlayOnAwake: 1
  m_Volume: 1
  m_Pitch: 1
  Loop: 0
  Mute: 0
  Spatialize: 0
  SpatializePostEffects: 0
  Priority: 128
  DopplerLevel: 1
  MinDistance: 1
  MaxDistance: 500
  Pan2D: 0
  rolloffMode: 0
  BypassEffects: 0
  BypassListenerEffects: 0
  BypassReverbZones: 0
  rolloffCustomCurve:
    serializedVersion: 2
    m_Curve:
    - serializedVersion: 3
      time: 0
      value: 1
      inSlope: 0
      outSlope: 0
      tangentMode: 0
      weightedMode: 0
      inWeight: 0.33333334
      outWeight: 0.33333334
    - serializedVersion: 3
      time: 1
      value: 0
      inSlope: 0
      outSlope: 0
      tangentMode: 0
      weightedMode: 0
      inWeight: 0.33333334
      outWeight: 0.33333334
    m_PreInfinity: 2
    m_PostInfinity: 2
    m_RotationOrder: 4
  panLevelCustomCurve:
    serializedVersion: 2
    m_Curve:
    - serializedVersion: 3
      time: 0
      value: 0
      inSlope: 0
      outSlope: 0
      tangentMode: 0
      weightedMode: 0
      inWeight: 0.33333334
      outWeight: 0.33333334
    m_PreInfinity: 2
    m_PostInfinity: 2
    m_RotationOrder: 4
  spreadCustomCurve:
    serializedVersion: 2
    m_Curve:
    - serializedVersion: 3
      time: 0
      value: 0
      inSlope: 0
      outSlope: 0
      tangentMode: 0
      weightedMode: 0
      inWeight: 0.33333334
      outWeight: 0.33333334
    m_PreInfinity: 2
    m_PostInfinity: 2
    m_RotationOrder: 4
  reverbZoneMixCustomCurve:
    serializedVersion: 2
    m_Curve:
    - serializedVersion: 3
      time: 0
      value: 1
      inSlope: 0
      outSlope: 0
      tangentMode: 0
      weightedMode: 0
      inWeight: 0.33333334
      outWeight: 0.33333334
    m_PreInfinity: 2
    m_PostInfinity: 2
    m_RotationOrder: 4
