%YAML 1.1
%TAG !u! tag:unity3d.com,2011:
--- !u!1 &6392529255758034077
GameObject:
  m_ObjectHideFlags: 0
  m_CorrespondingSourceObject: {fileID: 0}
  m_PrefabInstance: {fileID: 0}
  m_PrefabAsset: {fileID: 0}
  serializedVersion: 6
  m_Component:
  - component: {fileID: 8828423505680573492}
  - component: {fileID: 795821913179805673}
  - component: {fileID: 775971122949424106}
  m_Layer: 0
  m_Name: Wildfiire
  m_TagString: Untagged
  m_Icon: {fileID: 0}
  m_NavMeshLayer: 0
  m_StaticEditorFlags: 0
  m_IsActive: 1
--- !u!4 &8828423505680573492
Transform:
  m_ObjectHideFlags: 0
  m_CorrespondingSourceObject: {fileID: 0}
  m_PrefabInstance: {fileID: 0}
  m_PrefabAsset: {fileID: 0}
  m_GameObject: {fileID: 6392529255758034077}
  m_LocalRotation: {x: 0, y: 0, z: 0, w: 1}
  m_LocalPosition: {x: 0, y: 0, z: 0}
  m_LocalScale: {x: 1, y: 1, z: 1}
  m_Children: []
  m_Father: {fileID: 0}
  m_RootOrder: 0
  m_LocalEulerAnglesHint: {x: 0, y: 0, z: 0}
--- !u!114 &795821913179805673
MonoBehaviour:
  m_ObjectHideFlags: 0
  m_CorrespondingSourceObject: {fileID: 0}
  m_PrefabInstance: {fileID: 0}
  m_PrefabAsset: {fileID: 0}
  m_GameObject: {fileID: 6392529255758034077}
  m_Enabled: 1
  m_EditorHideFlags: 0
  m_Script: {fileID: 11500000, guid: 199e9db4e0571314cafe8c57733db6ec, type: 3}
  m_Name: 
  m_EditorClassIdentifier: 
  characterName: Wildfire
  abilityDescription: Turn every card in the middle into the next card you choose
  sprites: []
  voiceClips:
  - lines:
    - {fileID: 8300000, guid: d71df4417a1c8ca45b10829726c39eb8, type: 3}
    - {fileID: 8300000, guid: 4df0b082c8d0cd144aee5ead56801cd3, type: 3}
    - {fileID: 8300000, guid: 33936df7acbee6443985366c2edf307a, type: 3}
  - lines:
    - {fileID: 8300000, guid: 763ab4b70d8af8443b6d08d02f1cdd45, type: 3}
    - {fileID: 8300000, guid: 56d86110df180474585d7dc8b77682ff, type: 3}
    - {fileID: 8300000, guid: a43cd3ea7f6de6e40a55f170e8b147f4, type: 3}
  - lines:
    - {fileID: 8300000, guid: 403d5bbd5708cdd4aa7dc8a4cffc459d, type: 3}
    - {fileID: 8300000, guid: f8d4049b4b52a2941ab5e2ae1d02de2d, type: 3}
    - {fileID: 8300000, guid: f26a8b054dd8d454790ced4cefff7b31, type: 3}
  - lines:
    - {fileID: 8300000, guid: 8f04b61ce19aec041a68ffef3a289bae, type: 3}
    - {fileID: 8300000, guid: 9d50ea5f3cf080c48ac1dcfc1905624b, type: 3}
    - {fileID: 8300000, guid: 2f89a05e202f4b647af28a669d8ba0b7, type: 3}
  - lines:
    - {fileID: 8300000, guid: 3602a9963420bbd42b0186423936efc6, type: 3}
    - {fileID: 8300000, guid: 873ba3799afb0af4c960073988f23a67, type: 3}
  - lines:
    - {fileID: 8300000, guid: 6bbfdbd4e312c9741b239b5191c92a60, type: 3}
    - {fileID: 8300000, guid: 6fbc58261a3b49e4489b57558609982b, type: 3}
    - {fileID: 8300000, guid: cb0d78fe989c43742aeb7e1df2d97637, type: 3}
  - lines:
    - {fileID: 8300000, guid: e199d3aad144f5540a6d9b31e03d6a38, type: 3}
    - {fileID: 8300000, guid: f33b50d91d9d5c440a12e00b521bf3f8, type: 3}
    - {fileID: 8300000, guid: 0e75e13d039df624f9cfc25fcb2c3fb6, type: 3}
  - lines:
    - {fileID: 8300000, guid: 161d01e4eec5e074bbc40f7533bb5a7f, type: 3}
    - {fileID: 8300000, guid: efc4df8d2a8ad9744adea75dc0894a71, type: 3}
    - {fileID: 8300000, guid: 2cd43d8d5c17f3c428c0a6e4ade066ab, type: 3}
  - lines:
    - {fileID: 8300000, guid: 71835995a1019314798c3d04f11c8f44, type: 3}
    - {fileID: 8300000, guid: 18a875af17be61749bc635177a77d10d, type: 3}
    - {fileID: 8300000, guid: cd9e6915eca444d43b923a5aca882b8b, type: 3}
  - lines:
    - {fileID: 8300000, guid: 73fe0d3ef476618478df3d85ff7555d0, type: 3}
    - {fileID: 8300000, guid: 4a7c661a2a7f98d42bfb9c2881991403, type: 3}
    - {fileID: 8300000, guid: a32ae877f0e550e4180f50ac8b0de2a3, type: 3}
  - lines:
    - {fileID: 8300000, guid: 333c74f010fb2cc4aa2c52602fe006fe, type: 3}
    - {fileID: 8300000, guid: f936d9463d218704e9f94e28076830a9, type: 3}
    - {fileID: 8300000, guid: 6a44291bd9af83e479a7da968b6f2c6e, type: 3}
  - lines:
    - {fileID: 8300000, guid: a0bccee989f928c4182b740a371885cf, type: 3}
    - {fileID: 8300000, guid: 9808ea8c84b50ca4caa0a8674977b5e8, type: 3}
  - lines:
    - {fileID: 8300000, guid: ce0377cecc53d79468b3a388b5ca7184, type: 3}
    - {fileID: 8300000, guid: 150b570372fea7645ba8acd24638912e, type: 3}
    - {fileID: 8300000, guid: 347a44cb2c63a964886b91121163604f, type: 3}
--- !u!82 &775971122949424106
AudioSource:
  m_ObjectHideFlags: 0
  m_CorrespondingSourceObject: {fileID: 0}
  m_PrefabInstance: {fileID: 0}
  m_PrefabAsset: {fileID: 0}
  m_GameObject: {fileID: 6392529255758034077}
  m_Enabled: 1
  serializedVersion: 4
  OutputAudioMixerGroup: {fileID: 0}
  m_audioClip: {fileID: 0}
  m_PlayOnAwake: 0
  m_Volume: 1
  m_Pitch: 1
  Loop: 0
  Mute: 0
  Spatialize: 0
  SpatializePostEffects: 0
  Priority: 128
  DopplerLevel: 1
  MinDistance: 1
  MaxDistance: 500
  Pan2D: 0
  rolloffMode: 0
  BypassEffects: 0
  BypassListenerEffects: 0
  BypassReverbZones: 0
  rolloffCustomCurve:
    serializedVersion: 2
    m_Curve:
    - serializedVersion: 3
      time: 0
      value: 1
      inSlope: 0
      outSlope: 0
      tangentMode: 0
      weightedMode: 0
      inWeight: 0.33333334
      outWeight: 0.33333334
    - serializedVersion: 3
      time: 1
      value: 0
      inSlope: 0
      outSlope: 0
      tangentMode: 0
      weightedMode: 0
      inWeight: 0.33333334
      outWeight: 0.33333334
    m_PreInfinity: 2
    m_PostInfinity: 2
    m_RotationOrder: 4
  panLevelCustomCurve:
    serializedVersion: 2
    m_Curve:
    - serializedVersion: 3
      time: 0
      value: 0
      inSlope: 0
      outSlope: 0
      tangentMode: 0
      weightedMode: 0
      inWeight: 0.33333334
      outWeight: 0.33333334
    m_PreInfinity: 2
    m_PostInfinity: 2
    m_RotationOrder: 4
  spreadCustomCurve:
    serializedVersion: 2
    m_Curve:
    - serializedVersion: 3
      time: 0
      value: 0
      inSlope: 0
      outSlope: 0
      tangentMode: 0
      weightedMode: 0
      inWeight: 0.33333334
      outWeight: 0.33333334
    m_PreInfinity: 2
    m_PostInfinity: 2
    m_RotationOrder: 4
  reverbZoneMixCustomCurve:
    serializedVersion: 2
    m_Curve:
    - serializedVersion: 3
      time: 0
      value: 1
      inSlope: 0
      outSlope: 0
      tangentMode: 0
      weightedMode: 0
      inWeight: 0.33333334
      outWeight: 0.33333334
    m_PreInfinity: 2
    m_PostInfinity: 2
    m_RotationOrder: 4
