%YAML 1.1
%TAG !u! tag:unity3d.com,2011:
--- !u!114 &11400000
MonoBehaviour:
  m_ObjectHideFlags: 0
  m_CorrespondingSourceObject: {fileID: 0}
  m_PrefabInstance: {fileID: 0}
  m_PrefabAsset: {fileID: 0}
  m_GameObject: {fileID: 0}
  m_Enabled: 1
  m_EditorHideFlags: 0
  m_Script: {fileID: 11500000, guid: 4955f6c783cbe5c418ba121a722648f3, type: 3}
  m_Name: Bandaid
  m_EditorClassIdentifier: 
  cardName: Bandaid
  description: A <color=green>SLASH</color> type <color=green>Heal</color> card.
    Will heal <color=green>5</color> health and will cost <color=yellow>1</color>
    to use.
  type: 1
  cost: 1
  num: 5
  sprite: {fileID: 21300000, guid: 9032b08cfb7a97d4f8696b729cf69e77, type: 3}
