%YAML 1.1
%TAG !u! tag:unity3d.com,2011:
--- !u!114 &11400000
MonoBehaviour:
  m_ObjectHideFlags: 0
  m_CorrespondingSourceObject: {fileID: 0}
  m_PrefabInstance: {fileID: 0}
  m_PrefabAsset: {fileID: 0}
  m_GameObject: {fileID: 0}
  m_Enabled: 1
  m_EditorHideFlags: 0
  m_Script: {fileID: 11500000, guid: 991c83f23674d4b43befaa4fe86212aa, type: 3}
  m_Name: Muscle Enhancer
  m_EditorClassIdentifier: 
  cardName: Muscle Enhancer
  description: A <color=orange>SMASH</color> type <color=orange>Buff</color> card.Will
    multiply your next <color=orange>SMASH</color> <color=red>attack</color> or <color=green>heal</color>
    by <color=orange>3</color> and will cost <color=yellow>1</color> to use.
  type: 0
  cost: 2
  num: 3
  sprite: {fileID: 21300000, guid: 9032b08cfb7a97d4f8696b729cf69e77, type: 3}
  effectEnum: -1
