%YAML 1.1
%TAG !u! tag:unity3d.com,2011:
--- !u!1 &1824997481007549656
GameObject:
  m_ObjectHideFlags: 0
  m_CorrespondingSourceObject: {fileID: 0}
  m_PrefabInstance: {fileID: 0}
  m_PrefabAsset: {fileID: 0}
  serializedVersion: 6
  m_Component:
  - component: {fileID: 1824997481007549658}
  - component: {fileID: 1824997481007549657}
  m_Layer: 0
  m_Name: ColorManager
  m_TagString: Untagged
  m_Icon: {fileID: 0}
  m_NavMeshLayer: 0
  m_StaticEditorFlags: 0
  m_IsActive: 1
--- !u!4 &1824997481007549658
Transform:
  m_ObjectHideFlags: 0
  m_CorrespondingSourceObject: {fileID: 0}
  m_PrefabInstance: {fileID: 0}
  m_PrefabAsset: {fileID: 0}
  m_GameObject: {fileID: 1824997481007549656}
  m_LocalRotation: {x: 0, y: 0, z: 0, w: 1}
  m_LocalPosition: {x: 461.00626, y: 302.89804, z: -31.968046}
  m_LocalScale: {x: 1, y: 1, z: 1}
  m_Children: []
  m_Father: {fileID: 0}
  m_RootOrder: 0
  m_LocalEulerAnglesHint: {x: 0, y: 0, z: 0}
--- !u!114 &1824997481007549657
MonoBehaviour:
  m_ObjectHideFlags: 0
  m_CorrespondingSourceObject: {fileID: 0}
  m_PrefabInstance: {fileID: 0}
  m_PrefabAsset: {fileID: 0}
  m_GameObject: {fileID: 1824997481007549656}
  m_Enabled: 1
  m_EditorHideFlags: 0
  m_Script: {fileID: 11500000, guid: feb8278f39543ad429551a0068f4e994, type: 3}
  m_Name: 
  m_EditorClassIdentifier: 
  smashColor: {r: 1, g: 0.70869404, b: 0.4009434, a: 1}
  slashColor: {r: 0.3915094, g: 1, b: 0.82103217, a: 1}
  shootColor: {r: 0.8673882, g: 0.495283, b: 1, a: 1}
  attackColor: {r: 0.764151, g: 0, b: 0, a: 1}
  healColor: {r: 0, g: 0.735849, b: 0.027743744, a: 1}
  defenseColor: {r: 0, g: 0.59864664, b: 1, a: 1}
  buffColor: {r: 1, g: 0.7533744, b: 0, a: 1}
  buffSprite: {fileID: 21300000, guid: a3ee57bcf775c3b4dbe15a83f864a532, type: 3}
  attackSprite: {fileID: 21300000, guid: 88cb6376f4cc1c54bbc8761b761e957e, type: 3}
  defenseSprite: {fileID: 21300000, guid: 63c163e35ca1adc4fa4eccf1f70a12da, type: 3}
  healSprite: {fileID: 21300000, guid: cc68cdb4af996fe49baed88f1bf2f5b4, type: 3}
