%YAML 1.1
%TAG !u! tag:unity3d.com,2011:
--- !u!114 &11400000
MonoBehaviour:
  m_ObjectHideFlags: 0
  m_CorrespondingSourceObject: {fileID: 0}
  m_PrefabInstance: {fileID: 0}
  m_PrefabAsset: {fileID: 0}
  m_GameObject: {fileID: 0}
  m_Enabled: 1
  m_EditorHideFlags: 0
  m_Script: {fileID: 11500000, guid: 731921a0e031f2f468be1ef58a0f8037, type: 3}
  m_Name: Chainmail
  m_EditorClassIdentifier: 
  cardName: Chainmail
  description: A <color=green>SLASH</color> type <color=blue>Defense</color> card.Will
    divide the next <color=green>SLASH</color> <color=red>attack</color> against
    you by <color=blue>3</color> and will cost <color=yellow>1</color> to use.
  type: 1
  cost: 2
  num: 3
  sprite: {fileID: 21300000, guid: 9032b08cfb7a97d4f8696b729cf69e77, type: 3}
  effectEnum: -1
